[gd_scene load_steps=3 format=2]

[ext_resource path="res://reverseum/assets/ball.png" type="Texture" id=1]

[sub_resource type="CircleShape2D" id=1]
radius = 258.157

[node name="RigidBody2D" type="RigidBody2D"]

[node name="Sprite" type="Sprite" parent="."]
texture = ExtResource( 1 )

[node name="CollisionShape2D" type="CollisionShape2D" parent="."]
shape = SubResource( 1 )
